{
  "name": "Agency",
  "base": "PersistedModel",
  "mongodb": {
    "collection": "AgencyCollection"
  },
  "properties": {
    "paygovAppName": {
      "type": "string",
      "required": true
    },
    "whitelistIPs": {
      "type": [
        "string"
      ],
      "required": true
    },
    "callbackAddress": {
      "type": "string",
      "required": true
    },
    "postbackAddress": {
      "type": "string",
      "required": true
    },
    "tcsAppID": {
      "type": "string",
      "required": true
    }
  },
  "validations": [],
  "relations": {},
  "acls": [
    {
      "accessType": "*",
      "principalType": "ROLE",
      "principalId": "$authenticated",
      "permission": "ALLOW"
    }
  ],
  "methods": {}
}
