{
  "name": "SettlementReportStatus",
  "base": "PersistedModel",
  "idInjection": true,
  "options": {
    "validateUpsert": true
  },
  "properties": {
    "agencyId": {
      "type": "string",
      "required": true
    },
    "tcsAppId": {
      "type": "string",
      "required": true
    },
    "dateOfLastSuccessfullSettlementReport": {
      "type": "string",
      "required": true
    }
  },
  "validations": [],
  "relations": {},
  "acls": [
    {
      "accessType": "*",
      "principalType": "ROLE",
      "principalId": "$authenticated",
      "permission": "ALLOW"
    }

  ],
  "methods": {}
}
