{
  "pfx":"./qagovcert.pfx",
  "passphrase":"psl123",
  "proxy_url": "",
  "superAdminEmail":"SuperAdmin@hud.gov",
  "superAdminPassword":"Admin@1234",
  "nodeMailerEmail":"HPCSAdmin@hud.gov",
  "nodeMailerPassword":"gmail@78",
  "nodeMailerHost":"10.0.0.50",
  "nodeMailerPort":"465",
  "paygovReportUrl": "https://qa.pay.gov/paygov/ReportDownloadServlet",
  "env":"qa",
  "A67IsFTP":"FTP",
  "A67FolderLoc":"/home/ftuser/"
}



